[{
    "type": 1,
    "en": "<b>{{userName}} </b> has invited you to <b>{{companyName}}</b> collective.",
    "ru": "<b>{{userName}} </b> пригласил вас присоединиться в <b>{{companyName}}</b> коллектив",
    "default": "<b>{{userName}} </d> has invited you to <b>{{companyName}}</b> collective.",
    "identityString": "USER_INVITATION"
}, {
    "type": 2,
    "en": "Complete your profile information to gain increased chances of searches.",
    "ru": "Заполните информацию вашего профиля для того что бы другие пользователи могли вас легче найти",
    "default" : "Complete your profile information to gain increased chances of searches.",
    "identityString": "PROFILE_COMPLETION"
},{
    "type": 3,
    "en": "New feature introduced – will help you to sell tickets on your event page.",
    "ru": "Новая функциональность доступна - теперь мы поможем вам продавать билеты на странице вашего мероприятия",
    "default": "New feature introduced – will help you to sell tickets on your event page.",
    "identityString": "NEW_FEATURE_INTRODUCED_SELL_TICKETS_ON_YOUR_EVENT"
}]